{
    "result":[
        {
            "id":"a6c897a7",
            "zone_id":"1032ed9c",
            "zone_name":"example.com",
            "name":"test.example.com",
            "type":"A",
            "content":"127.0.0.1",
            "proxiable":true,
            "proxied":true,
            "ttl":1,
            "locked":false,
            "meta":{
                "auto_added":false,
                "managed_by_apps":false,
                "managed_by_argo_tunnel":false,
                "source":"primary"
            },
            "comment":"",
            "tags":[],
            "created_on":"2023-04-25T06:07:53.137354Z",
            "modified_on":"2024-01-14T08:51:55.605377Z"
        }
    ],
    "success":true,
    "errors":[],
    "messages":[],
    "result_info":{
        "page":1,
        "per_page":100,
        "count":1,
        "total_count":1,
        "total_pages":1
    }
}
