{
    "result":[],
    "success":true,
    "errors":[],
    "messages":[],
    "result_info":{
        "page":1,
        "per_page":100,
        "count":0,
        "total_count":0,
        "total_pages":1
    }
}
