<mxfile host="app.diagrams.net" modified="2024-01-07T09:45:39.168Z" agent="Mozilla/5.0 (Macintosh; Intel Mac OS X 10.15; rv:109.0) Gecko/20100101 Firefox/119.0" etag="uwOHrt74R0s6JHH1mYMD" version="22.1.16" type="device">
  <diagram name="Page-1" id="mBWFgGa14-2YeeCGh4dI">
    <mxGraphModel dx="1281" dy="812" grid="1" gridSize="10" guides="1" tooltips="1" connect="1" arrows="1" fold="1" page="1" pageScale="1" pageWidth="1169" pageHeight="827" math="0" shadow="0">
      <root>
        <mxCell id="0" />
        <mxCell id="1" parent="0" />
        <mxCell id="FQiges87u-yae7xxIB9K-48" style="edgeStyle=orthogonalEdgeStyle;rounded=0;orthogonalLoop=1;jettySize=auto;html=1;entryX=0.5;entryY=1;entryDx=0;entryDy=0;startArrow=classic;startFill=1;" edge="1" parent="1" source="FQiges87u-yae7xxIB9K-4" target="FQiges87u-yae7xxIB9K-13">
          <mxGeometry relative="1" as="geometry">
            <Array as="points">
              <mxPoint x="374" y="360" />
              <mxPoint x="374" y="360" />
            </Array>
          </mxGeometry>
        </mxCell>
        <mxCell id="FQiges87u-yae7xxIB9K-4" value="router" style="shape=cube;whiteSpace=wrap;html=1;boundedLbl=1;backgroundOutline=1;darkOpacity=0.05;darkOpacity2=0.1;fillColor=#647687;fontColor=#ffffff;strokeColor=#314354;" vertex="1" parent="1">
          <mxGeometry x="314" y="350" width="120" height="80" as="geometry" />
        </mxCell>
        <mxCell id="FQiges87u-yae7xxIB9K-19" style="edgeStyle=orthogonalEdgeStyle;rounded=0;orthogonalLoop=1;jettySize=auto;html=1;entryX=0;entryY=0.5;entryDx=0;entryDy=0;" edge="1" parent="1" source="FQiges87u-yae7xxIB9K-5" target="FQiges87u-yae7xxIB9K-13">
          <mxGeometry relative="1" as="geometry" />
        </mxCell>
        <mxCell id="FQiges87u-yae7xxIB9K-25" style="edgeStyle=orthogonalEdgeStyle;rounded=0;orthogonalLoop=1;jettySize=auto;html=1;" edge="1" parent="1" source="FQiges87u-yae7xxIB9K-5" target="FQiges87u-yae7xxIB9K-24">
          <mxGeometry relative="1" as="geometry" />
        </mxCell>
        <mxCell id="FQiges87u-yae7xxIB9K-30" style="edgeStyle=orthogonalEdgeStyle;rounded=0;orthogonalLoop=1;jettySize=auto;html=1;endArrow=diamond;endFill=1;" edge="1" parent="1" source="FQiges87u-yae7xxIB9K-5" target="FQiges87u-yae7xxIB9K-28">
          <mxGeometry relative="1" as="geometry">
            <Array as="points" />
          </mxGeometry>
        </mxCell>
        <mxCell id="FQiges87u-yae7xxIB9K-5" value="&lt;div&gt;read from /tmp/dynamic-ip.txtif empty None or &quot;&quot;&lt;br&gt;&lt;/div&gt;" style="rounded=0;whiteSpace=wrap;html=1;fillColor=#e1d5e7;strokeColor=#9673a6;" vertex="1" parent="1">
          <mxGeometry x="150" y="260" width="120" height="60" as="geometry" />
        </mxCell>
        <mxCell id="FQiges87u-yae7xxIB9K-32" style="edgeStyle=orthogonalEdgeStyle;rounded=0;orthogonalLoop=1;jettySize=auto;html=1;entryX=0.5;entryY=0;entryDx=0;entryDy=0;startArrow=classic;startFill=1;endArrow=none;endFill=0;" edge="1" parent="1" source="FQiges87u-yae7xxIB9K-11" target="FQiges87u-yae7xxIB9K-28">
          <mxGeometry relative="1" as="geometry">
            <Array as="points">
              <mxPoint x="380" y="110" />
              <mxPoint x="280" y="110" />
            </Array>
          </mxGeometry>
        </mxCell>
        <mxCell id="FQiges87u-yae7xxIB9K-33" style="edgeStyle=orthogonalEdgeStyle;rounded=0;orthogonalLoop=1;jettySize=auto;html=1;entryX=0.5;entryY=0;entryDx=0;entryDy=0;endArrow=none;endFill=0;startArrow=classic;startFill=1;" edge="1" parent="1" source="FQiges87u-yae7xxIB9K-11" target="FQiges87u-yae7xxIB9K-29">
          <mxGeometry relative="1" as="geometry">
            <Array as="points">
              <mxPoint x="380" y="110" />
              <mxPoint x="510" y="110" />
            </Array>
          </mxGeometry>
        </mxCell>
        <mxCell id="FQiges87u-yae7xxIB9K-36" style="edgeStyle=orthogonalEdgeStyle;rounded=0;orthogonalLoop=1;jettySize=auto;html=1;" edge="1" parent="1" source="FQiges87u-yae7xxIB9K-11" target="FQiges87u-yae7xxIB9K-35">
          <mxGeometry relative="1" as="geometry">
            <Array as="points">
              <mxPoint x="850" y="110" />
              <mxPoint x="850" y="110" />
            </Array>
          </mxGeometry>
        </mxCell>
        <mxCell id="FQiges87u-yae7xxIB9K-38" value="if they match" style="edgeLabel;html=1;align=center;verticalAlign=middle;resizable=0;points=[];" vertex="1" connectable="0" parent="FQiges87u-yae7xxIB9K-36">
          <mxGeometry x="0.1345" y="1" relative="1" as="geometry">
            <mxPoint x="-70" y="1" as="offset" />
          </mxGeometry>
        </mxCell>
        <mxCell id="FQiges87u-yae7xxIB9K-41" style="edgeStyle=orthogonalEdgeStyle;rounded=0;orthogonalLoop=1;jettySize=auto;html=1;entryX=0;entryY=0.5;entryDx=0;entryDy=0;" edge="1" parent="1" source="FQiges87u-yae7xxIB9K-11" target="FQiges87u-yae7xxIB9K-42">
          <mxGeometry relative="1" as="geometry">
            <mxPoint x="740" y="190" as="targetPoint" />
          </mxGeometry>
        </mxCell>
        <mxCell id="FQiges87u-yae7xxIB9K-11" value="compare ip-address and ip-address+1" style="whiteSpace=wrap;html=1;fillColor=#e1d5e7;strokeColor=#9673a6;" vertex="1" parent="1">
          <mxGeometry x="494" y="80" width="120" height="60" as="geometry" />
        </mxCell>
        <mxCell id="FQiges87u-yae7xxIB9K-31" style="edgeStyle=orthogonalEdgeStyle;rounded=0;orthogonalLoop=1;jettySize=auto;html=1;endArrow=diamond;endFill=1;" edge="1" parent="1" source="FQiges87u-yae7xxIB9K-13" target="FQiges87u-yae7xxIB9K-29">
          <mxGeometry relative="1" as="geometry">
            <Array as="points" />
          </mxGeometry>
        </mxCell>
        <mxCell id="FQiges87u-yae7xxIB9K-55" style="edgeStyle=orthogonalEdgeStyle;rounded=0;orthogonalLoop=1;jettySize=auto;html=1;entryX=0;entryY=0.5;entryDx=0;entryDy=0;" edge="1" parent="1" source="FQiges87u-yae7xxIB9K-13" target="FQiges87u-yae7xxIB9K-15">
          <mxGeometry relative="1" as="geometry" />
        </mxCell>
        <mxCell id="FQiges87u-yae7xxIB9K-13" value="query router for current ip address" style="whiteSpace=wrap;html=1;fillColor=#e1d5e7;strokeColor=#9673a6;" vertex="1" parent="1">
          <mxGeometry x="314" y="260" width="120" height="60" as="geometry" />
        </mxCell>
        <mxCell id="FQiges87u-yae7xxIB9K-54" style="edgeStyle=orthogonalEdgeStyle;rounded=0;orthogonalLoop=1;jettySize=auto;html=1;" edge="1" parent="1" source="FQiges87u-yae7xxIB9K-15" target="FQiges87u-yae7xxIB9K-24">
          <mxGeometry relative="1" as="geometry">
            <Array as="points">
              <mxPoint x="530" y="450" />
            </Array>
          </mxGeometry>
        </mxCell>
        <mxCell id="FQiges87u-yae7xxIB9K-15" value="write current ip to /tmp/dynamic-ip.txt " style="whiteSpace=wrap;html=1;fillColor=#e1d5e7;strokeColor=#9673a6;" vertex="1" parent="1">
          <mxGeometry x="470" y="260" width="120" height="60" as="geometry" />
        </mxCell>
        <mxCell id="FQiges87u-yae7xxIB9K-24" value="/tmp/dynamic-ip.txt" style="shape=document;whiteSpace=wrap;html=1;boundedLbl=1;fillColor=#f5f5f5;fontColor=#333333;strokeColor=#666666;" vertex="1" parent="1">
          <mxGeometry x="150" y="420" width="120" height="80" as="geometry" />
        </mxCell>
        <mxCell id="FQiges87u-yae7xxIB9K-28" value="ip-address" style="shape=parallelogram;perimeter=parallelogramPerimeter;whiteSpace=wrap;html=1;fixedSize=1;fillColor=#f5f5f5;fontColor=#333333;strokeColor=#666666;" vertex="1" parent="1">
          <mxGeometry x="150" y="160" width="120" height="60" as="geometry" />
        </mxCell>
        <mxCell id="FQiges87u-yae7xxIB9K-29" value="ip-address+1" style="shape=parallelogram;perimeter=parallelogramPerimeter;whiteSpace=wrap;html=1;fixedSize=1;fillColor=#f5f5f5;fontColor=#333333;strokeColor=#666666;" vertex="1" parent="1">
          <mxGeometry x="314" y="160" width="120" height="60" as="geometry" />
        </mxCell>
        <mxCell id="FQiges87u-yae7xxIB9K-35" value="exit" style="whiteSpace=wrap;html=1;fillColor=#d5e8d4;strokeColor=#82b366;" vertex="1" parent="1">
          <mxGeometry x="960" y="100" width="120" height="60" as="geometry" />
        </mxCell>
        <mxCell id="FQiges87u-yae7xxIB9K-40" value="if ip-address is None" style="edgeStyle=orthogonalEdgeStyle;rounded=0;orthogonalLoop=1;jettySize=auto;html=1;" edge="1" parent="1">
          <mxGeometry x="-0.0638" relative="1" as="geometry">
            <mxPoint x="614" y="109.95263157894752" as="sourcePoint" />
            <mxPoint x="960" y="140.0026315789475" as="targetPoint" />
            <Array as="points">
              <mxPoint x="700" y="109.95" />
              <mxPoint x="700" y="139.95" />
            </Array>
            <mxPoint as="offset" />
          </mxGeometry>
        </mxCell>
        <mxCell id="FQiges87u-yae7xxIB9K-46" style="edgeStyle=orthogonalEdgeStyle;rounded=0;orthogonalLoop=1;jettySize=auto;html=1;startArrow=classic;startFill=1;" edge="1" parent="1" source="FQiges87u-yae7xxIB9K-42" target="FQiges87u-yae7xxIB9K-3">
          <mxGeometry relative="1" as="geometry" />
        </mxCell>
        <mxCell id="FQiges87u-yae7xxIB9K-49" style="edgeStyle=orthogonalEdgeStyle;rounded=0;orthogonalLoop=1;jettySize=auto;html=1;" edge="1" parent="1" source="FQiges87u-yae7xxIB9K-42" target="FQiges87u-yae7xxIB9K-51">
          <mxGeometry relative="1" as="geometry">
            <mxPoint x="860" y="250" as="targetPoint" />
          </mxGeometry>
        </mxCell>
        <mxCell id="FQiges87u-yae7xxIB9K-42" value="request list of known hosts with A address with ip-address" style="whiteSpace=wrap;html=1;fillColor=#e1d5e7;strokeColor=#9673a6;" vertex="1" parent="1">
          <mxGeometry x="680" y="170" width="120" height="60" as="geometry" />
        </mxCell>
        <mxCell id="FQiges87u-yae7xxIB9K-53" style="edgeStyle=orthogonalEdgeStyle;rounded=0;orthogonalLoop=1;jettySize=auto;html=1;" edge="1" parent="1" source="FQiges87u-yae7xxIB9K-51" target="FQiges87u-yae7xxIB9K-35">
          <mxGeometry relative="1" as="geometry">
            <Array as="points">
              <mxPoint x="1020" y="200" />
            </Array>
          </mxGeometry>
        </mxCell>
        <mxCell id="FQiges87u-yae7xxIB9K-57" style="edgeStyle=orthogonalEdgeStyle;rounded=0;orthogonalLoop=1;jettySize=auto;html=1;" edge="1" parent="1" source="FQiges87u-yae7xxIB9K-51" target="FQiges87u-yae7xxIB9K-3">
          <mxGeometry relative="1" as="geometry">
            <Array as="points">
              <mxPoint x="900" y="300" />
            </Array>
          </mxGeometry>
        </mxCell>
        <mxCell id="FQiges87u-yae7xxIB9K-51" value="for each host, update with new ip-address" style="whiteSpace=wrap;html=1;fillColor=#e1d5e7;strokeColor=#9673a6;" vertex="1" parent="1">
          <mxGeometry x="840" y="170" width="120" height="60" as="geometry" />
        </mxCell>
        <mxCell id="FQiges87u-yae7xxIB9K-3" value="Cloudflare" style="ellipse;shape=cloud;whiteSpace=wrap;html=1;fillColor=#ffe6cc;strokeColor=#d79b00;" vertex="1" parent="1">
          <mxGeometry x="680" y="270" width="120" height="80" as="geometry" />
        </mxCell>
      </root>
    </mxGraphModel>
  </diagram>
</mxfile>
